{
    "/Applications/LibreOffice.app/Contents/MacOS/soffice": [
        "-accept=\"socket,host=localhost,port=2002;urp;\"",
        "-headless",
        "-maximized",
        "-minimized",
        "-nodefault",
        "-nologo",
        "-norestore"
    ],
    "/opt/openoffice4/program/soffice": [
        "-accept=\"socket,host=localhost,port=2002;urp;\"",
        "-headless",
        "-maximized",
        "-minimized",
        "-nodefault",
        "-nologo",
        "-norestore"
    ],
    "C:\\Program Files\\LibreOffice 5\\program\\soffice.exe": [
        "--accept=\"socket,host=localhost,port=8100;urp;\"",
        "--headless",
        "--minimized",
        "--nodefault",
        "--nologo",
        "--norestore",
        "--language=fr"
    ],
    "C:\\Program Files\\LibreOffice 5\\program\\soffice.exe ": [
        "--accept=\"pipe,name=LibreOffice;urp;\""
    ],
    "USB:\\PortableApps\u0007OO-4.1.5\\App\\openoffice\\program\\soffice.exe": [
        "-accept=\"socket,host=localhost,port=2002;urp;\"",
        "-headless",
        "-maximized",
        "-minimized",
        "-nodefault",
        "-nologo",
        "-norestore"
    ]
}
