{
    "C:\\Program Files\\LibreOffice 5\\program\\soffice.exe ": [
        "--accept=\"pipe,name=ScriptContext;urp;\""
    ],
    "C:\\Program Files\\LibreOffice 5\\program\\soffice.exe  ": [
        "--accept=\"socket,host=localhost,port=8001;urp;\"",
        "--headless",
        "--minimized",
        "--nodefault",
        "--nologo",
        "--norestore",
        "--language=fr"
    ]
}
